<svg xmlns="http://www.w3.org/2000/svg" xmlns:xlink="http://www.w3.org/1999/xlink" width="668" height="100" viewBox="0 0 668 100">
    <defs>
        <rect id="b" width="668" height="97" x="132" y="1169" rx="6"/>
        <filter id="a" width="100.4%" height="106.2%" x="-.2%" y="-1.5%" filterUnits="objectBoundingBox">
            <feOffset dy="3" in="SourceAlpha" result="shadowOffsetOuter1"/>
            <feColorMatrix in="shadowOffsetOuter1" values="0 0 0 0 0 0 0 0 0 0.654901961 0 0 0 0 0.811764706 0 0 0 1 0"/>
        </filter>
    </defs>
    <g fill="none" fill-rule="evenodd" transform="translate(-132 -1169)">
        <use fill="#000" filter="url(#a)" xlink:href="#b"/>
        <use fill="#0FC5DC" xlink:href="#b"/>
    </g>
</svg>
